<svg width="207" height="207" viewBox="0 0 207 207" fill="none" xmlns="http://www.w3.org/2000/svg">
<path d="M103.444 73.3125L80.7904 34.5H12.8254L103.444 189.75L194.063 34.5H126.098L103.444 73.3125Z" fill="#81C784"/>
<path d="M126.097 34.5L103.444 73.3125L80.7904 34.5H48.0671L103.444 129.375L158.821 34.5H126.097Z" fill="#455A64"/>
</svg>
